…
```r
#Create HomeAgeSold and YearRemodAdd
train_Age <- train %>%
    mutate(HomeAgeSold = YrSold - YearBuilt, AgeRemod = YrSold - YearRemodAdd)
train_Age_group <- train_Age %>%
    group_by(HomeAgeSold) %>%
    summarize(median_sale_price = median(SalePrice), n = n()) %>% print()
```

```
## # A tibble: 122 x 3
##    HomeAgeSold median_sale_price     n
##          <int>             <dbl> <int>
##  1           0            243289    64
##  2           1            235064   100
##  3           2            203000    39
##  4           3            245500    36
##  5           4            192500    41
##  6           5            222450    30
##  7           6            217500    30
##  8           7            207500    24
##  9           8            214900    25
## 10           9            217000    23
## # ... with 112 more rows
```
…
```r
train_best_lm %>%
    tidy(conf.int = TRUE, conf.level = 1-alpha)
```

```
## # A tibble: 92 x 7
##    term          estimate std.error statistic  p.value  conf.low conf.high
##    <chr>            <dbl>     <dbl>     <dbl>    <dbl>     <dbl>     <dbl>
##  1 (Intercept)   9.70     0.174         55.7  0.        9.36       1.00e+1
##  2 OverallQual   0.0622   0.00513       12.1  3.33e-32  0.0521     7.22e-2
##  3 OverallCond   0.0442   0.00423       10.5  1.14e-24  0.0359     5.25e-2
##  4 BsmtFullBath  0.0652   0.00758        8.59 2.28e-17  0.0503     8.00e-2
##  5 FullBath      0.0336   0.0102         3.29 1.03e- 3  0.0136     5.37e-2
##  6 LogLotArea    0.0975   0.0113         8.64 1.55e-17  0.0754     1.20e-1
##  7 GrLivArea     0.000203 0.0000125     16.3  1.73e-54  0.000179   2.28e-4
##  8 HomeAgeSold  -0.00193  0.000484      -3.98 7.25e- 5 -0.00288   -9.78e-4
##  9 AgeRemod     -0.000862 0.000288      -2.99 2.84e- 3 -0.00143   -2.96e-4
## 10 MSZoningFV    0.387    0.0625         6.19 7.84e-10  0.265      5.10e-1
## # ... with 82 more rows
```
…
```r
train_final_lm <- lm(LogSalePrice ~ OverallQual + OverallCond  + BsmtFullBath + KitchenAbvGr + LogLotArea + BsmtFinSF1  + GrLivArea + 
                         GarageArea + WoodDeckSF + HomeAgeSold + AgeRemod + OpenPorchSF + SsnPorch + MSZoning + Neighborhood +
                         Condition2 + Exterior1st + Foundation + BsmtQual  + FireplaceQu + GarageType + SaleType + 
                         Agecat, data = train_Age)                          

train_final_lm %>%
    tidy(conf.int = TRUE, conf.level = 1-alpha)
```

```
## # A tibble: 88 x 7
##    term          estimate std.error statistic   p.value conf.low conf.high
##    <chr>            <dbl>     <dbl>     <dbl>     <dbl>    <dbl>     <dbl>
##  1 (Intercept)    9.94e+0   1.46e-1     68.2  0.         9.66e+0 10.2     
##  2 OverallQual    5.87e-2   4.09e-3     14.3  1.44e- 43  5.06e-2  0.0667  
##  3 OverallCond    4.65e-2   3.35e-3     13.8  6.56e- 41  3.99e-2  0.0530  
##  4 BsmtFullBath   2.81e-2   7.39e-3      3.80 1.52e-  4  1.36e-2  0.0425  
##  5 KitchenAbvGr  -2.73e-2   1.61e-2     -1.70 8.92e-  2 -5.89e-2  0.00419 
##  6 LogLotArea     1.05e-1   9.02e-3     11.6  8.83e- 30  8.70e-2  0.122   
##  7 BsmtFinSF1     9.19e-5   9.52e-6      9.65 2.32e- 21  7.32e-5  0.000111
##  8 GrLivArea      2.64e-4   9.38e-6     28.2  3.75e-138  2.46e-4  0.000283
##  9 GarageArea     1.44e-4   2.26e-5      6.38 2.35e- 10  9.98e-5  0.000188
## 10 WoodDeckSF     6.77e-5   2.47e-5      2.74 6.22e-  3  1.92e-5  0.000116
## # ... with 78 more rows
```
…
